<?xml version="1.0" encoding="utf-8"?>
<!-- Generator: Adobe Illustrator 15.0.1, SVG Export Plug-In . SVG Version: 6.00 Build 0)  -->
<!DOCTYPE svg PUBLIC "-//W3C//DTD SVG 1.1//EN" "http://www.w3.org/Graphics/SVG/1.1/DTD/svg11.dtd">
<svg version="1.1" id="Layer_1" xmlns="http://www.w3.org/2000/svg" xmlns:xlink="http://www.w3.org/1999/xlink" x="0px" y="0px"
	 width="883.457px" height="656.968px" viewBox="0 0 883.457 656.968" enable-background="new 0 0 883.457 656.968"
	 xml:space="preserve">
<text transform="matrix(1 0 0 1 613.2476 188.7295)" fill="#464646" font-family="'Arial-BoldMT'" font-size="9">Ряд 1</text>
<rect x="639.763" y="180.897" fill="#008C00" width="4" height="8.667"/>
<text transform="matrix(1 0 0 1 637.2476 226.3955)" fill="#464646" font-family="'Arial-BoldMT'" font-size="9">Ряд 2</text>
<rect x="663.763" y="218.564" fill="#FFB400" width="4" height="8.667"/>
<text transform="matrix(1 0 0 1 660.2476 263.0635)" fill="#464646" font-family="'Arial-BoldMT'" font-size="9">Ряд 3</text>
<rect x="686.763" y="255.231" fill="#FFB400" width="4" height="8.666"/>
<text transform="matrix(1 0 0 1 660.2476 300.7305)" fill="#464646" font-family="'Arial-BoldMT'" font-size="9">Ряд 4</text>
<rect x="686.763" y="292.898" fill="#DE0000" width="4" height="8.666"/>
<text transform="matrix(1 0 0 1 636.2476 338.728)" fill="#464646" font-family="'Arial-BoldMT'" font-size="9">Ряд 5</text>
<rect x="662.763" y="330.897" fill="#DE0000" width="4" height="8.666"/>
<text transform="matrix(1 0 0 1 587.0776 376.396)" fill="#464646" font-family="'Arial-BoldMT'" font-size="9">Ряд 6</text>
<rect x="613.593" y="368.564" fill="#DE0000" width="4" height="8.667"/>
<text transform="matrix(1 0 0 1 587.0776 413.062)" fill="#464646" font-family="'Arial-BoldMT'" font-size="9">Ряд 7</text>
<rect x="613.593" y="405.231" fill="#DE0000" width="4" height="8.666"/>
<text transform="matrix(1 0 0 1 630.5776 450.73)" fill="#464646" font-family="'Arial-BoldMT'" font-size="9">Ряд 8</text>
<rect x="657.093" y="442.898" fill="#DE0000" width="4" height="8.666"/>
<text transform="matrix(1 0 0 1 702.2476 499.396)" fill="#464646" font-family="'Arial-BoldMT'" font-size="9">Ряд 9</text>
<rect x="728.763" y="491.566" fill="#DE0000" width="4" height="8.666"/>
<text transform="matrix(1 0 0 1 220.7476 188.7295)" fill="#464646" font-family="'Arial-BoldMT'" font-size="9">Ряд 1</text>
<rect x="214.429" y="180.897" fill="#008C00" width="4" height="8.667"/>
<text transform="matrix(1 0 0 1 197.7476 226.3955)" fill="#464646" font-family="'Arial-BoldMT'" font-size="9">Ряд 2</text>
<rect x="190.929" y="218.564" fill="#FFB400" width="4" height="8.667"/>
<text transform="matrix(1 0 0 1 197.7476 263.0635)" fill="#464646" font-family="'Arial-BoldMT'" font-size="9">Ряд 3</text>
<rect x="190.929" y="255.231" fill="#FFB400" width="4" height="8.666"/>
<text transform="matrix(1 0 0 1 197.7476 300.7305)" fill="#464646" font-family="'Arial-BoldMT'" font-size="9">Ряд 4</text>
<rect x="190.929" y="292.898" fill="#DE0000" width="4" height="8.666"/>
<text transform="matrix(1 0 0 1 197.7476 338.728)" fill="#464646" font-family="'Arial-BoldMT'" font-size="9">Ряд 5</text>
<rect x="190.929" y="330.897" fill="#DE0000" width="4" height="8.666"/>
<text transform="matrix(1 0 0 1 197.7476 376.396)" fill="#464646" font-family="'Arial-BoldMT'" font-size="9">Ряд 6</text>
<rect x="190.929" y="368.564" fill="#DE0000" width="4" height="8.667"/>
<text transform="matrix(1 0 0 1 197.7476 413.062)" fill="#464646" font-family="'Arial-BoldMT'" font-size="9">Ряд 7</text>
<rect x="190.929" y="405.231" fill="#DE0000" width="4" height="8.666"/>
<text transform="matrix(1 0 0 1 184.7476 450.73)" fill="#464646" font-family="'Arial-BoldMT'" font-size="9">Ряд 8</text>
<rect x="177.929" y="442.898" fill="#DE0000" width="4" height="8.666"/>
<text transform="matrix(1 0 0 1 137.7476 499.396)" fill="#464646" font-family="'Arial-BoldMT'" font-size="9">Ряд 9</text>
<rect x="130.929" y="491.566" fill="#DE0000" width="4" height="8.666"/>
<path fill="#464646" d="M677.91,111.331c-71.881-9.641-158.158-15.26-250.944-15.26c-92.786,0-179.064,5.619-250.943,15.26v-5.184
	c73.562-22.104,158.157-38.589,250.943-38.589c92.786,0,178.647,17.349,250.944,38.589V111.331z"/>
<text transform="matrix(1 0 0 1 408.6299 87.2715)" fill="#FFFFFF" font-family="'ArialMT'" font-size="13">Экран</text>
<rect x="754.931" y="557.65" fill="#787878" width="67" height="21"/>
<g>
	<g>
		<rect x="764.931" y="541.4" fill="#787878" width="47" height="8.5"/>
		<rect x="764.931" y="527.65" fill="#787878" width="47" height="8.5"/>
		<rect x="764.931" y="513.9" fill="#787878" width="47" height="8.5"/>
		<rect x="764.931" y="500.15" fill="#787878" width="47" height="8.5"/>
		<rect x="764.931" y="486.4" fill="#787878" width="47" height="8.5"/>
		<rect x="764.931" y="472.65" fill="#787878" width="47" height="8.5"/>
		<rect x="764.931" y="458.9" fill="#787878" width="47" height="8.5"/>
		<rect x="764.931" y="445.15" fill="#787878" width="47" height="8.5"/>
		<rect x="764.931" y="431.4" fill="#787878" width="47" height="8.5"/>
		<rect x="764.931" y="417.649" fill="#787878" width="47" height="8.501"/>
	</g>
</g>
<rect x="754.931" y="417.649" fill="#787878" width="5.332" height="138.001"/>
<rect x="816.597" y="417.649" fill="#787878" width="5.334" height="138.001"/>
<path fill="#787878" d="M765.302,581.474l13.922,15.049l1.836-1.699l-13.924-15.047L765.302,581.474z M809.724,579.777
	l-13.922,15.047l1.834,1.697l13.924-15.047L809.724,579.777z"/>
<text transform="matrix(1 0 0 1 774.3296 571.6479)" fill="#FFFFFF" font-family="'Arial-BoldMT'" font-size="11">Вход</text>
</svg>
