google.com, pub-4831048730502278, DIRECT, f08c47fec0942fa0
Criteo.com,128928,DIRECT
google.com, pub-8309773808661346, DIRECT, f08c47fec0942fa0
#CLICKIO
google.com, pub-3104790387792468, RESELLER, f08c47fec0942fa0
appnexus.com, 1908, RESELLER
appnexus.com, 7944, RESELLER
districtm.io, 101028, RESELLER
openx.com, 537119011, RESELLER, 6a698e2ec38604c6
clickio.com, 116327, DIRECT
mediawayss.com, 261, DIRECT
google.com, pub-1965383259143495, RESELLER, f08c47fec0942fa0
admixer.net, 2d79770e-7647-495c-b78a-3f19206c9941, DIRECT